{
  "username": "user@example.com",
  "password": "$2a$10$xOlwjt10/hxSn6roHopqW.tj6qOxTETww2.q0nbY.8V7j.RJwKmSy",
  "firstName": "Ruben",
  "lastName": "Van Dooren",
  "userId": 1,
  "_links": {
    "self": {
      "href": "http://localhost:8080/api/users/7"
    }
  }
}